fasster::useR2018
…
---

# Modelling electricity demand

```r
elec_tr <- tsibbledata::elecdemand %>%
  filter(index < ymd("2014-03-01"))
elec_tr
```

```
#> # A tsibble: 2,832 x 4 [30MINUTE]
#>    index               Demand WorkDay Temperature
#>    <dttm>               <dbl>   <dbl>       <dbl>
#>  1 2014-01-01 00:00:00   3.91       0        18.2
#>  2 2014-01-01 00:30:00   3.67       0        17.9
#>  3 2014-01-01 01:00:00   3.50       0        17.6
#>  4 2014-01-01 01:30:00   3.34       0        16.8
#>  5 2014-01-01 02:00:00   3.20       0        16.3
#>  6 2014-01-01 02:30:00   3.10       0        16.6
#>  7 2014-01-01 03:00:00   3.04       0        16.6
#>  8 2014-01-01 03:30:00   3.01       0        16.7
#>  9 2014-01-01 04:00:00   3.02       0        16.2
#> 10 2014-01-01 04:30:00   3.03       0        16.6
#> # ... with 2,822 more rows
```
…
---

# Components

```r
components(elec_fit)
```

```
#> # A tsibble: 2,832 x 7 [30MINUTE]
#>    index               Temperature `Temperature^2` `WorkDay_0/poly(… `WorkDay_0/trig(…
#>    <dttm>                    <dbl>           <dbl>             <dbl>             <dbl>
#>  1 2014-01-01 00:00:00     -0.0189        0.000512              1.55          -0.00826
#>  2 2014-01-01 00:30:00     -0.0189        0.000512              1.55          -0.0826 
#>  3 2014-01-01 01:00:00     -0.0189        0.000512              1.55          -0.118  
#>  4 2014-01-01 01:30:00     -0.0189        0.000512              1.55          -0.167  
#>  5 2014-01-01 02:00:00     -0.0188        0.000510              1.55          -0.198  
#>  6 2014-01-01 02:30:00     -0.0186        0.000509              1.54          -0.227  
#>  7 2014-01-01 03:00:00     -0.0187        0.000510              1.54          -0.244  
#>  8 2014-01-01 03:30:00     -0.0187        0.000509              1.53          -0.249  
#>  9 2014-01-01 04:00:00     -0.0195        0.000521              1.54          -0.250  
#> 10 2014-01-01 04:30:00     -0.0184        0.000505              1.52          -0.232  
#> # ... with 2,822 more rows, and 2 more variables: `WorkDay_1/poly(1)` <dbl>,
#> #   `WorkDay_1/trig(48, 16)` <dbl>
```
…
